
{"photos":{"page":1, "pages":54789, "perpage":5, "total":"273942", "photo":[{"id":"8803736756", "owner":"61851476@N05", "secret":"f0d578133f", "server":"3715", "farm":4, "title":"Bow Tie", "ispublic":1, "isfriend":0, "isfamily":0}, {"id":"8793060167", "owner":"61851476@N05", "secret":"167e4650db", "server":"3822", "farm":4, "title":"Sundance 2", "ispublic":1, "isfriend":0, "isfamily":0}, {"id":"8803641088", "owner":"61851476@N05", "secret":"c1db95a156", "server":"2864", "farm":3, "title":"Sundance 3", "ispublic":1, "isfriend":0, "isfamily":0}, {"id":"8803203226", "owner":"92245187@N02", "secret":"47948b7c35", "server":"3793", "farm":4, "title":"Perfect for Chocolate Popcorn! http:\/\/mylittlepony4u.tumblr.com", "ispublic":1, "isfriend":0, "isfamily":0}, {"id":"8803202868", "owner":"92245187@N02", "secret":"82c92d7515", "server":"8412", "farm":9, "title":"The Pits of YouTube Are Surprisingly Wise http:\/\/mylittlepony4u.tumblr.com", "ispublic":1, "isfriend":0, "isfamily":0}]}, "stat":"ok"}